<svg xmlns="http://www.w3.org/2000/svg" xmlns:xlink="http://www.w3.org/1999/xlink" id="Layer_1" x="0px" y="0px" viewBox="0 0 512 512" style="enable-background:new 0 0 512 512;" xml:space="preserve">
<style type="text/css">
	.st0{fill:url(#SVGID_1_);}
</style>
<linearGradient id="SVGID_1_" gradientUnits="userSpaceOnUse" x1="135.1344" y1="337.6657" x2="379.8656" y2="92.9345">
	<stop offset="3.965045e-07" style="stop-color:#B26952"></stop>
	<stop offset="9.223972e-03" style="stop-color:#B76E57"></stop>
	<stop offset="0.0714" style="stop-color:#D38A79"></stop>
	<stop offset="0.1227" style="stop-color:#E49B8E"></stop>
	<stop offset="0.1565" style="stop-color:#EAA196"></stop>
	<stop offset="0.2993" style="stop-color:#F9C7BA"></stop>
	<stop offset="0.3395" style="stop-color:#F9C7BA"></stop>
	<stop offset="0.3452" style="stop-color:#F9C6B9"></stop>
	<stop offset="0.4951" style="stop-color:#EEABA0"></stop>
	<stop offset="0.583" style="stop-color:#EAA196"></stop>
	<stop offset="0.7411" style="stop-color:#D08776"></stop>
	<stop offset="0.9038" style="stop-color:#BA715B"></stop>
	<stop offset="1" style="stop-color:#B26952"></stop>
</linearGradient>
<polygon class="st0" points="246.47,200.05 216.21,336.33 79.94,200.05 165.62,114.36 349.38,114.36 435.06,200.05 298.19,336.93   268.53,200.05 268.53,449 307.43,379.6 486.98,200.05 364.58,77.65 150.42,77.65 28.02,200.05 206.96,379 246.47,449 "></polygon>
</svg>